Estructuras/Practica1/Practica_evaluable/alu.vcd
$date
	Wed Oct 23 09:31:05 2024
$end
$version
	Icarus Verilog
$end
$timescale
	10ps
$end
$scope module alu_tb $end
$var wire 1 ! t_z $end
$var wire 1 " t_s $end
$var wire 1 # t_c $end
$var wire 4 $ t_R [3:0] $end
$var reg 1 % error $end
$var reg 1 & error_R $end
$var reg 1 ' error_c $end
$var reg 1 ( error_s $end
$var reg 1 ) error_z $end
$var reg 4 * t_A [3:0] $end
$var reg 4 + t_B [3:0] $end
$var reg 3 , t_Op [2:0] $end
$var reg 1 - t_cin $end
$var integer 32 . errores [31:0] $end
$scope module mat $end
$var wire 4 / A [3:0] $end
$var wire 4 0 B [3:0] $end
$var wire 3 1 Op [2:0] $end
$var wire 1 - c_in $end
$var wire 1 ! zero $end
$var wire 1 " sign $end
$var wire 1 # carry $end
$var wire 4 2 aux2_ [3:0] $end
$var wire 4 3 aux1_ [3:0] $end
$var wire 4 4 R [3:0] $end
$var wire 4 5 BMod_ [3:0] $end
$var wire 4 6 AMod_ [3:0] $end
$scope module mux2_41 $end
$var wire 1 7 s $end
$var wire 4 8 Out [3:0] $end
$var wire 4 9 B [3:0] $end
$var wire 4 : A [3:0] $end
$upscope $end
$scope module preprocess1 $end
$var wire 4 ; A [3:0] $end
$var wire 4 < B [3:0] $end
$var wire 3 = Op [2:0] $end
$var wire 1 > add1 $end
$var wire 1 ? cpl $end
$var wire 1 @ op1_A $end
$var wire 1 A op2_B $end
$var wire 4 B aux2 [3:0] $end
$var wire 4 C aux1 [3:0] $end
$var wire 4 D BMod [3:0] $end
$var wire 4 E AMod [3:0] $end
$scope module compl1 $end
$var wire 1 ? cpl $end
$var wire 4 F Out [3:0] $end
$var wire 4 G Inp [3:0] $end
$upscope $end
$scope module mux1 $end
$var wire 4 H A [3:0] $end
$var wire 4 I B [3:0] $end
$var wire 4 J Out [3:0] $end
$var wire 1 > s $end
$upscope $end
$scope module mux2 $end
$var wire 4 K A [3:0] $end
$var wire 4 L B [3:0] $end
$var wire 1 @ s $end
$var wire 4 M Out [3:0] $end
$upscope $end
$scope module mux3 $end
$var wire 4 N A [3:0] $end
$var wire 4 O B [3:0] $end
$var wire 1 A s $end
$var wire 4 P Out [3:0] $end
$upscope $end
$upscope $end
$scope module sum4_1 $end
$var wire 4 Q A [3:0] $end
$var wire 4 R B [3:0] $end
$var wire 1 - c_in $end
$var wire 1 # c_out $end
$var wire 3 S c [3:1] $end
$var wire 4 T S [3:0] $end
$scope module fa1 $end
$var wire 1 U a $end
$var wire 1 V b $end
$var wire 1 - c_in $end
$var wire 1 W sum $end
$var wire 1 X c_out $end
$upscope $end
$scope module fa2 $end
$var wire 1 Y a $end
$var wire 1 Z b $end
$var wire 1 [ c_in $end
$var wire 1 \ sum $end
$var wire 1 ] c_out $end
$upscope $end
$scope module fa3 $end
$var wire 1 ^ a $end
$var wire 1 _ b $end
$var wire 1 ` c_in $end
$var wire 1 a sum $end
$var wire 1 b c_out $end
$upscope $end
$scope module fa4 $end
$var wire 1 c a $end
$var wire 1 d b $end
$var wire 1 e c_in $end
$var wire 1 f sum $end
$var wire 1 # c_out $end
$upscope $end
$upscope $end
$scope module ul4_1 $end
$var wire 4 g A [3:0] $end
$var wire 4 h B [3:0] $end
$var wire 2 i S [1:0] $end
$var reg 4 j Out [3:0] $end
$upscope $end
$upscope $end
$scope task check $end
$var reg 5 k expected_R [4:0] $end
$var reg 1 l expected_c $end
$var reg 1 m expected_s $end
$var reg 1 n expected_z $end
$upscope $end
$upscope $end
$scope module cl $end
$var wire 2 o S [1:0] $end
$var wire 1 p a $end
$var wire 1 q and_out $end
$var wire 1 r b $end
$var wire 1 s neg_out $end
$var wire 1 t or_out $end
$var wire 1 u xor_out $end
$var wire 1 v out $end
$scope module mux1 $end
$var wire 2 w S [1:0] $end
$var wire 1 q a $end
$var wire 1 t b $end
$var wire 1 u c $end
$var wire 1 s d $end
$var reg 1 v out $end
$upscope $end
$upscope $end
$scope module mux4_tb $end
$upscope $end
$scope module sum4_v2 $end
$var wire 4 x A [3:0] $end
$var wire 4 y B [3:0] $end
$var wire 1 z c_in $end
$var wire 1 { c_out $end
$var wire 4 | S [3:0] $end
$upscope $end
$enddefinitions $end
#0
$dumpvars
bx |
x{
zz
bz y
bz x
bz w
0v
xu
xt
zs
zr
xq
zp
bz o
xn
xm
xl
bx k
b1 j
b0 i
b1111 h
b1 g
0f
1e
1d
0c
1b
0a
1`
1_
0^
1]
0\
1[
1Z
0Y
1X
0W
1V
1U
b0 T
b111 S
b1111 R
b1 Q
b0 P
b0 O
b0 N
b1 M
b0 L
b1 K
b1 J
b1 I
b0 H
b0 G
b1111 F
b1 E
b1111 D
b1 C
b0 B
0A
0@
1?
1>
b0 =
b0 <
b0 ;
b0 :
b1 9
b0 8
07
b1 6
b1111 5
b0 4
b0 3
b1 2
b0 1
b0 0
b0 /
b0 .
0-
b0 ,
b0 +
b0 *
x)
x(
x'
x&
x%
b0 $
1#
0"
1!
$end
#1
0%
0)
0&
1n
0'
0(
0m
1l
b10000 k
#1000
b1 +
b1 0
b1 <
b1 O
#2000
b10 +
b10 0
b10 <
b10 O
#3000
b11 +
b11 0
b11 <
b11 O
#4000
b100 +
b100 0
b100 <
b100 O
#5000
b101 +
b101 0
b101 <
b101 O
#6000
b110 +
b110 0
b110 <
b110 O
#7000
b111 +
b111 0
b111 <
b111 O
#8000
b1000 +
b1000 0
b1000 <
b1000 O
#9000
b1001 +
b1001 0
b1001 <
b1001 O
#10000
b1010 +
b1010 0
b1010 <
b1010 O
#11000
b1011 +
b1011 0
b1011 <
b1011 O
#12000
b1100 +
b1100 0
b1100 <
b1100 O
#13000
b1101 +
b1101 0
b1101 <
b1101 O
#14000
b1110 +
b1110 0
b1110 <
b1110 O
#15000
b1111 +
b1111 0
b1111 <
b1111 O
#16000
1"
1f
0#
0e
1a
0b
0`
1\
0]
0!
b1111 $
b1111 4
b1111 8
0[
b1111 3
b1111 :
b1111 T
1W
b0 S
0X
0V
b0 2
b0 9
b0 j
b1110 5
b1110 D
b1110 F
b1110 R
b1110 h
b1 B
b1 G
b1 P
b1 *
b1 /
b1 ;
b1 L
b1 N
b0 +
b0 0
b0 <
b0 O
#16001
0n
1m
0l
b1111 k
#17000
b1 +
b1 0
b1 <
b1 O
#18000
b10 +
b10 0
b10 <
b10 O
#19000
b11 +
b11 0
b11 <
b11 O
#20000
b100 +
b100 0
b100 <
b100 O
#21000
b101 +
b101 0
b101 <
b101 O
#22000
b110 +
b110 0
b110 <
b110 O
#23000
b111 +
b111 0
b111 <
b111 O
#24000
b1000 +
b1000 0
b1000 <
b1000 O
#25000
b1001 +
b1001 0
b1001 <
b1001 O
#26000
b1010 +
b1010 0
b1010 <
b1010 O
#27000
b1011 +
b1011 0
b1011 <
b1011 O
#28000
b1100 +
b1100 0
b1100 <
b1100 O
#29000
b1101 +
b1101 0
b1101 <
b1101 O
#30000
b1110 +
b1110 0
b1110 <
b1110 O
#31000
b1111 +
b1111 0
b1111 <
b1111 O
#32000
1[
b1110 $
b1110 4
b1110 8
0W
b1 S
1X
b1110 3
b1110 :
b1110 T
1\
1V
0Z
b1 2
b1 9
b1 j
b1101 5
b1101 D
b1101 F
b1101 R
b1101 h
b10 B
b10 G
b10 P
b10 *
b10 /
b10 ;
b10 L
b10 N
b0 +
b0 0
b0 <
b0 O
#32001
b1110 k
#33000
b1 +
b1 0
b1 <
b1 O
#34000
b10 +
b10 0
b10 <
b10 O
#35000
b11 +
b11 0
b11 <
b11 O
#36000
b100 +
b100 0
b100 <
b100 O
#37000
b101 +
b101 0
b101 <
b101 O
#38000
b110 +
b110 0
b110 <
b110 O
#39000
b111 +
b111 0
b111 <
b111 O
#40000
b1000 +
b1000 0
b1000 <
b1000 O
#41000
b1001 +
b1001 0
b1001 <
b1001 O
#42000
b1010 +
b1010 0
b1010 <
b1010 O
#43000
b1011 +
b1011 0
b1011 <
b1011 O
#44000
b1100 +
b1100 0
b1100 <
b1100 O
#45000
b1101 +
b1101 0
b1101 <
b1101 O
#46000
b1110 +
b1110 0
b1110 <
b1110 O
#47000
b1111 +
b1111 0
b1111 <
b1111 O
#48000
0\
b1101 $
b1101 4
b1101 8
0[
b1101 3
b1101 :
b1101 T
1W
b0 S
0X
0V
b0 2
b0 9
b0 j
b1100 5
b1100 D
b1100 F
b1100 R
b1100 h
b11 B
b11 G
b11 P
b11 *
b11 /
b11 ;
b11 L
b11 N
b0 +
b0 0
b0 <
b0 O
#48001
b1101 k
#49000
b1 +
b1 0
b1 <
b1 O
#50000
b10 +
b10 0
b10 <
b10 O
#51000
b11 +
b11 0
b11 <
b11 O
#52000
b100 +
b100 0
b100 <
b100 O
#53000
b101 +
b101 0
b101 <
b101 O
#54000
b110 +
b110 0
b110 <
b110 O
#55000
b111 +
b111 0
b111 <
b111 O
#56000
b1000 +
b1000 0
b1000 <
b1000 O
#57000
b1001 +
b1001 0
b1001 <
b1001 O
#58000
b1010 +
b1010 0
b1010 <
b1010 O
#59000
b1011 +
b1011 0
b1011 <
b1011 O
#60000
b1100 +
b1100 0
b1100 <
b1100 O
#61000
b1101 +
b1101 0
b1101 <
b1101 O
#62000
b1110 +
b1110 0
b1110 <
b1110 O
#63000
b1111 +
b1111 0
b1111 <
b1111 O
#64000
1`
1]
1[
b1100 $
b1100 4
b1100 8
0W
b11 S
1X
0\
b1100 3
b1100 :
b1100 T
1a
1V
1Z
0_
b1 2
b1 9
b1 j
b1011 5
b1011 D
b1011 F
b1011 R
b1011 h
b100 B
b100 G
b100 P
b100 *
b100 /
b100 ;
b100 L
b100 N
b0 +
b0 0
b0 <
b0 O
#64001
b1100 k
#65000
b1 +
b1 0
b1 <
b1 O
#66000
b10 +
b10 0
b10 <
b10 O
#67000
b11 +
b11 0
b11 <
b11 O
#68000
b100 +
b100 0
b100 <
b100 O
#69000
b101 +
b101 0
b101 <
b101 O
#70000
b110 +
b110 0
b110 <
b110 O
#71000
b111 +
b111 0
b111 <
b111 O
#72000
b1000 +
b1000 0
b1000 <
b1000 O
#73000
b1001 +
b1001 0
b1001 <
b1001 O
#74000
b1010 +
b1010 0
b1010 <
b1010 O
#75000
b1011 +
b1011 0
b1011 <
b1011 O
#76000
b1100 +
b1100 0
b1100 <
b1100 O
#77000
b1101 +
b1101 0
b1101 <
b1101 O
#78000
b1110 +
b1110 0
b1110 <
b1110 O
#79000
b1111 +
b1111 0
b1111 <
b1111 O
#80000
0a
0`
1\
0]
b1011 $
b1011 4
b1011 8
0[
b1011 3
b1011 :
b1011 T
1W
b0 S
0X
0V
b0 2
b0 9
b0 j
b1010 5
b1010 D
b1010 F
b1010 R
b1010 h
b101 B
b101 G
b101 P
b101 *
b101 /
b101 ;
b101 L
b101 N
b0 +
b0 0
b0 <
b0 O
#80001
b1011 k
#81000
b1 +
b1 0
b1 <
b1 O
#82000
b10 +
b10 0
b10 <
b10 O
#83000
b11 +
b11 0
b11 <
b11 O
#84000
b100 +
b100 0
b100 <
b100 O
#85000
b101 +
b101 0
b101 <
b101 O
#86000
b110 +
b110 0
b110 <
b110 O
#87000
b111 +
b111 0
b111 <
b111 O
#88000
b1000 +
b1000 0
b1000 <
b1000 O
#89000
b1001 +
b1001 0
b1001 <
b1001 O
#90000
b1010 +
b1010 0
b1010 <
b1010 O
#91000
b1011 +
b1011 0
b1011 <
b1011 O
#92000
b1100 +
b1100 0
b1100 <
b1100 O
#93000
b1101 +
b1101 0
b1101 <
b1101 O
#94000
b1110 +
b1110 0
b1110 <
b1110 O
#95000
b1111 +
b1111 0
b1111 <
b1111 O
#96000
1[
b1010 $
b1010 4
b1010 8
0W
b1 S
1X
b1010 3
b1010 :
b1010 T
1\
1V
0Z
b1 2
b1 9
b1 j
b1001 5
b1001 D
b1001 F
b1001 R
b1001 h
b110 B
b110 G
b110 P
b110 *
b110 /
b110 ;
b110 L
b110 N
b0 +
b0 0
b0 <
b0 O
#96001
b1010 k
#97000
b1 +
b1 0
b1 <
b1 O
#98000
b10 +
b10 0
b10 <
b10 O
#99000
b11 +
b11 0
b11 <
b11 O
#100000
b100 +
b100 0
b100 <
b100 O
#101000
b101 +
b101 0
b101 <
b101 O
#102000
b110 +
b110 0
b110 <
b110 O
#103000
b111 +
b111 0
b111 <
b111 O
#104000
b1000 +
b1000 0
b1000 <
b1000 O
#105000
b1001 +
b1001 0
b1001 <
b1001 O
#106000
b1010 +
b1010 0
b1010 <
b1010 O
#107000
b1011 +
b1011 0
b1011 <
b1011 O
#108000
b1100 +
b1100 0
b1100 <
b1100 O
#109000
b1101 +
b1101 0
b1101 <
b1101 O
#110000
b1110 +
b1110 0
b1110 <
b1110 O
#111000
b1111 +
b1111 0
b1111 <
b1111 O
#112000
0\
b1001 $
b1001 4
b1001 8
0[
b1001 3
b1001 :
b1001 T
1W
b0 S
0X
0V
b0 2
b0 9
b0 j
b1000 5
b1000 D
b1000 F
b1000 R
b1000 h
b111 B
b111 G
b111 P
b111 *
b111 /
b111 ;
b111 L
b111 N
b0 +
b0 0
b0 <
b0 O
#112001
b1001 k
#113000
b1 +
b1 0
b1 <
b1 O
#114000
b10 +
b10 0
b10 <
b10 O
#115000
b11 +
b11 0
b11 <
b11 O
#116000
b100 +
b100 0
b100 <
b100 O
#117000
b101 +
b101 0
b101 <
b101 O
#118000
b110 +
b110 0
b110 <
b110 O
#119000
b111 +
b111 0
b111 <
b111 O
#120000
b1000 +
b1000 0
b1000 <
b1000 O
#121000
b1001 +
b1001 0
b1001 <
b1001 O
#122000
b1010 +
b1010 0
b1010 <
b1010 O
#123000
b1011 +
b1011 0
b1011 <
b1011 O
#124000
b1100 +
b1100 0
b1100 <
b1100 O
#125000
b1101 +
b1101 0
b1101 <
b1101 O
#126000
b1110 +
b1110 0
b1110 <
b1110 O
#127000
b1111 +
b1111 0
b1111 <
b1111 O
#128000
0!
1e
1b
1`
1]
1"
1[
b1000 $
b1000 4
b1000 8
0W
b111 S
1X
0\
0a
b1000 3
b1000 :
b1000 T
1f
1V
1Z
1_
0d
b1 2
b1 9
b1 j
b111 5
b111 D
b111 F
b111 R
b111 h
b1000 B
b1000 G
b1000 P
b1000 *
b1000 /
b1000 ;
b1000 L
b1000 N
b0 +
b0 0
b0 <
b0 O
#128001
b1000 k
#129000
b1 +
b1 0
b1 <
b1 O
#130000
b10 +
b10 0
b10 <
b10 O
#131000
b11 +
b11 0
b11 <
b11 O
#132000
b100 +
b100 0
b100 <
b100 O
#133000
b101 +
b101 0
b101 <
b101 O
#134000
b110 +
b110 0
b110 <
b110 O
#135000
b111 +
b111 0
b111 <
b111 O
#136000
b1000 +
b1000 0
b1000 <
b1000 O
#137000
b1001 +
b1001 0
b1001 <
b1001 O
#138000
b1010 +
b1010 0
b1010 <
b1010 O
#139000
b1011 +
b1011 0
b1011 <
b1011 O
#140000
b1100 +
b1100 0
b1100 <
b1100 O
#141000
b1101 +
b1101 0
b1101 <
b1101 O
#142000
b1110 +
b1110 0
b1110 <
b1110 O
#143000
b1111 +
b1111 0
b1111 <
b1111 O
#144000
0"
0f
0e
1a
0b
0`
1\
0]
b111 $
b111 4
b111 8
0[
b111 3
b111 :
b111 T
1W
b0 S
0X
0V
b0 2
b0 9
b0 j
b110 5
b110 D
b110 F
b110 R
b110 h
b1001 B
b1001 G
b1001 P
b1001 *
b1001 /
b1001 ;
b1001 L
b1001 N
b0 +
b0 0
b0 <
b0 O
#144001
0m
b111 k
#145000
b1 +
b1 0
b1 <
b1 O
#146000
b10 +
b10 0
b10 <
b10 O
#147000
b11 +
b11 0
b11 <
b11 O
#148000
b100 +
b100 0
b100 <
b100 O
#149000
b101 +
b101 0
b101 <
b101 O
#150000
b110 +
b110 0
b110 <
b110 O
#151000
b111 +
b111 0
b111 <
b111 O
#152000
b1000 +
b1000 0
b1000 <
b1000 O
#153000
b1001 +
b1001 0
b1001 <
b1001 O
#154000
b1010 +
b1010 0
b1010 <
b1010 O
#155000
b1011 +
b1011 0
b1011 <
b1011 O
#156000
b1100 +
b1100 0
b1100 <
b1100 O
#157000
b1101 +
b1101 0
b1101 <
b1101 O
#158000
b1110 +
b1110 0
b1110 <
b1110 O
#159000
b1111 +
b1111 0
b1111 <
b1111 O
#160000
1[
b110 $
b110 4
b110 8
0W
b1 S
1X
b110 3
b110 :
b110 T
1\
1V
0Z
b1 2
b1 9
b1 j
b101 5
b101 D
b101 F
b101 R
b101 h
b1010 B
b1010 G
b1010 P
b1010 *
b1010 /
b1010 ;
b1010 L
b1010 N
b0 +
b0 0
b0 <
b0 O
#160001
b110 k
#161000
b1 +
b1 0
b1 <
b1 O
#162000
b10 +
b10 0
b10 <
b10 O
#163000
b11 +
b11 0
b11 <
b11 O
#164000
b100 +
b100 0
b100 <
b100 O
#165000
b101 +
b101 0
b101 <
b101 O
#166000
b110 +
b110 0
b110 <
b110 O
#167000
b111 +
b111 0
b111 <
b111 O
#168000
b1000 +
b1000 0
b1000 <
b1000 O
#169000
b1001 +
b1001 0
b1001 <
b1001 O
#170000
b1010 +
b1010 0
b1010 <
b1010 O
#171000
b1011 +
b1011 0
b1011 <
b1011 O
#172000
b1100 +
b1100 0
b1100 <
b1100 O
#173000
b1101 +
b1101 0
b1101 <
b1101 O
#174000
b1110 +
b1110 0
b1110 <
b1110 O
#175000
b1111 +
b1111 0
b1111 <
b1111 O
#176000
0\
b101 $
b101 4
b101 8
0[
b101 3
b101 :
b101 T
1W
b0 S
0X
0V
b0 2
b0 9
b0 j
b100 5
b100 D
b100 F
b100 R
b100 h
b1011 B
b1011 G
b1011 P
b1011 *
b1011 /
b1011 ;
b1011 L
b1011 N
b0 +
b0 0
b0 <
b0 O
#176001
b101 k
#177000
b1 +
b1 0
b1 <
b1 O
#178000
b10 +
b10 0
b10 <
b10 O
#179000
b11 +
b11 0
b11 <
b11 O
#180000
b100 +
b100 0
b100 <
b100 O
#181000
b101 +
b101 0
b101 <
b101 O
#182000
b110 +
b110 0
b110 <
b110 O
#183000
b111 +
b111 0
b111 <
b111 O
#184000
b1000 +
b1000 0
b1000 <
b1000 O
#185000
b1001 +
b1001 0
b1001 <
b1001 O
#186000
b1010 +
b1010 0
b1010 <
b1010 O
#187000
b1011 +
b1011 0
b1011 <
b1011 O
#188000
b1100 +
b1100 0
b1100 <
b1100 O
#189000
b1101 +
b1101 0
b1101 <
b1101 O
#190000
b1110 +
b1110 0
b1110 <
b1110 O
#191000
b1111 +
b1111 0
b1111 <
b1111 O
#192000
0!
1`
1]
1[
b100 $
b100 4
b100 8
0W
b11 S
1X
0\
b100 3
b100 :
b100 T
1a
1V
1Z
0_
b1 2
b1 9
b1 j
b11 5
b11 D
b11 F
b11 R
b11 h
b1100 B
b1100 G
b1100 P
b1100 *
b1100 /
b1100 ;
b1100 L
b1100 N
b0 +
b0 0
b0 <
b0 O
#192001
b100 k
#193000
b1 +
b1 0
b1 <
b1 O
#194000
b10 +
b10 0
b10 <
b10 O
#195000
b11 +
b11 0
b11 <
b11 O
#196000
b100 +
b100 0
b100 <
b100 O
#197000
b101 +
b101 0
b101 <
b101 O
#198000
b110 +
b110 0
b110 <
b110 O
#199000
b111 +
b111 0
b111 <
b111 O
#200000
b1000 +
b1000 0
b1000 <
b1000 O
#201000
b1001 +
b1001 0
b1001 <
b1001 O
#202000
b1010 +
b1010 0
b1010 <
b1010 O
#203000
b1011 +
b1011 0
b1011 <
b1011 O
#204000
b1100 +
b1100 0
b1100 <
b1100 O
#205000
b1101 +
b1101 0
b1101 <
b1101 O
#206000
b1110 +
b1110 0
b1110 <
b1110 O
#207000
b1111 +
b1111 0
b1111 <
b1111 O
#208000
0a
0`
1\
0]
b11 $
b11 4
b11 8
0[
b11 3
b11 :
b11 T
1W
b0 S
0X
0V
b0 2
b0 9
b0 j
b10 5
b10 D
b10 F
b10 R
b10 h
b1101 B
b1101 G
b1101 P
b1101 *
b1101 /
b1101 ;
b1101 L
b1101 N
b0 +
b0 0
b0 <
b0 O
#208001
b11 k
#209000
b1 +
b1 0
b1 <
b1 O
#210000
b10 +
b10 0
b10 <
b10 O
#211000
b11 +
b11 0
b11 <
b11 O
#212000
b100 +
b100 0
b100 <
b100 O
#213000
b101 +
b101 0
b101 <
b101 O
#214000
b110 +
b110 0
b110 <
b110 O
#215000
b111 +
b111 0
b111 <
b111 O
#216000
b1000 +
b1000 0
b1000 <
b1000 O
#217000
b1001 +
b1001 0
b1001 <
b1001 O
#218000
b1010 +
b1010 0
b1010 <
b1010 O
#219000
b1011 +
b1011 0
b1011 <
b1011 O
#220000
b1100 +
b1100 0
b1100 <
b1100 O
#221000
b1101 +
b1101 0
b1101 <
b1101 O
#222000
b1110 +
b1110 0
b1110 <
b1110 O
#223000
b1111 +
b1111 0
b1111 <
b1111 O
#224000
1[
0!
b10 $
b10 4
b10 8
0W
b1 S
1X
b10 3
b10 :
b10 T
1\
1V
0Z
b1 2
b1 9
b1 j
b1 5
b1 D
b1 F
b1 R
b1 h
b1110 B
b1110 G
b1110 P
b1110 *
b1110 /
b1110 ;
b1110 L
b1110 N
b0 +
b0 0
b0 <
b0 O
#224001
b10 k
#225000
b1 +
b1 0
b1 <
b1 O
#226000
b10 +
b10 0
b10 <
b10 O
#227000
b11 +
b11 0
b11 <
b11 O
#228000
b100 +
b100 0
b100 <
b100 O
#229000
b101 +
b101 0
b101 <
b101 O
#230000
b110 +
b110 0
b110 <
b110 O
#231000
b111 +
b111 0
b111 <
b111 O
#232000
b1000 +
b1000 0
b1000 <
b1000 O
#233000
b1001 +
b1001 0
b1001 <
b1001 O
#234000
b1010 +
b1010 0
b1010 <
b1010 O
#235000
b1011 +
b1011 0
b1011 <
b1011 O
#236000
b1100 +
b1100 0
b1100 <
b1100 O
#237000
b1101 +
b1101 0
b1101 <
b1101 O
#238000
b1110 +
b1110 0
b1110 <
b1110 O
#239000
b1111 +
b1111 0
b1111 <
b1111 O
#240000
0\
b1 $
b1 4
b1 8
0[
b1 3
b1 :
b1 T
1W
b0 S
0X
0V
b0 2
b0 9
b0 j
b0 5
b0 D
b0 F
b0 R
b0 h
b1111 B
b1111 G
b1111 P
b1111 *
b1111 /
b1111 ;
b1111 L
b1111 N
b0 +
b0 0
b0 <
b0 O
#240001
b1 k
#241000
b1 +
b1 0
b1 <
b1 O
#242000
b10 +
b10 0
b10 <
b10 O
#243000
b11 +
b11 0
b11 <
b11 O
#244000
b100 +
b100 0
b100 <
b100 O
#245000
b101 +
b101 0
b101 <
b101 O
#246000
b110 +
b110 0
b110 <
b110 O
#247000
b111 +
b111 0
b111 <
b111 O
#248000
b1000 +
b1000 0
b1000 <
b1000 O
#249000
b1001 +
b1001 0
b1001 <
b1001 O
#250000
b1010 +
b1010 0
b1010 <
b1010 O
#251000
b1011 +
b1011 0
b1011 <
b1011 O
#252000
b1100 +
b1100 0
b1100 <
b1100 O
#253000
b1101 +
b1101 0
b1101 <
b1101 O
#254000
b1110 +
b1110 0
b1110 <
b1110 O
#255000
b1111 +
b1111 0
b1111 <
b1111 O
#256000
1#
1e
1b
0"
1`
1]
0a
0f
1V
1Z
1_
1d
b1 2
b1 9
b1 j
0\
b1111 5
b1111 D
b1111 F
b1111 R
b1111 h
0!
b1 $
b1 4
b1 8
1[
b1 3
b1 :
b1 T
1W
b111 S
1X
b0 B
b0 G
b0 P
1-
b0 *
b0 /
b0 ;
b0 L
b0 N
b0 +
b0 0
b0 <
b0 O
#256001
1l
b10001 k
#257000
b1 +
b1 0
b1 <
b1 O
#258000
b10 +
b10 0
b10 <
b10 O
#259000
b11 +
b11 0
b11 <
b11 O
#260000
b100 +
b100 0
b100 <
b100 O
#261000
b101 +
b101 0
b101 <
b101 O
#262000
b110 +
b110 0
b110 <
b110 O
#263000
b111 +
b111 0
b111 <
b111 O
#264000
b1000 +
b1000 0
b1000 <
b1000 O
#265000
b1001 +
b1001 0
b1001 <
b1001 O
#266000
b1010 +
b1010 0
b1010 <
b1010 O
#267000
b1011 +
b1011 0
b1011 <
b1011 O
#268000
b1100 +
b1100 0
b1100 <
b1100 O
#269000
b1101 +
b1101 0
b1101 <
b1101 O
#270000
b1110 +
b1110 0
b1110 <
b1110 O
#271000
b1111 +
b1111 0
b1111 <
b1111 O
#272000
1!
b0 $
b0 4
b0 8
b0 3
b0 :
b0 T
0W
0V
b0 2
b0 9
b0 j
b1110 5
b1110 D
b1110 F
b1110 R
b1110 h
b1 B
b1 G
b1 P
b1 *
b1 /
b1 ;
b1 L
b1 N
b0 +
b0 0
b0 <
b0 O
#272001
1n
b10000 k
#273000
b1 +
b1 0
b1 <
b1 O
#274000
b10 +
b10 0
b10 <
b10 O
#275000
b11 +
b11 0
b11 <
b11 O
#276000
b100 +
b100 0
b100 <
b100 O
#277000
b101 +
b101 0
b101 <
b101 O
#278000
b110 +
b110 0
b110 <
b110 O
#279000
b111 +
b111 0
b111 <
b111 O
#280000
b1000 +
b1000 0
b1000 <
b1000 O
#281000
b1001 +
b1001 0
b1001 <
b1001 O
#282000
b1010 +
b1010 0
b1010 <
b1010 O
#283000
b1011 +
b1011 0
b1011 <
b1011 O
#284000
b1100 +
b1100 0
b1100 <
b1100 O
#285000
b1101 +
b1101 0
b1101 <
b1101 O
#286000
b1110 +
b1110 0
b1110 <
b1110 O
#287000
b1111 +
b1111 0
b1111 <
b1111 O
#288000
1"
1f
0#
0e
1a
0b
0!
b1111 $
b1111 4
b1111 8
0`
1W
b1111 3
b1111 :
b1111 T
1\
b1 S
0]
1V
0Z
b1 2
b1 9
b1 j
b1101 5
b1101 D
b1101 F
b1101 R
b1101 h
b10 B
b10 G
b10 P
b10 *
b10 /
b10 ;
b10 L
b10 N
b0 +
b0 0
b0 <
b0 O
#288001
0n
1m
0l
b1111 k
#289000
b1 +
b1 0
b1 <
b1 O
#290000
b10 +
b10 0
b10 <
b10 O
#291000
b11 +
b11 0
b11 <
b11 O
#292000
b100 +
b100 0
b100 <
b100 O
#293000
b101 +
b101 0
b101 <
b101 O
#294000
b110 +
b110 0
b110 <
b110 O
#295000
b111 +
b111 0
b111 <
b111 O
#296000
b1000 +
b1000 0
b1000 <
b1000 O
#297000
b1001 +
b1001 0
b1001 <
b1001 O
#298000
b1010 +
b1010 0
b1010 <
b1010 O
#299000
b1011 +
b1011 0
b1011 <
b1011 O
#300000
b1100 +
b1100 0
b1100 <
b1100 O
#301000
b1101 +
b1101 0
b1101 <
b1101 O
#302000
b1110 +
b1110 0
b1110 <
b1110 O
#303000
b1111 +
b1111 0
b1111 <
b1111 O
#304000
b1110 $
b1110 4
b1110 8
b1110 3
b1110 :
b1110 T
0W
0V
b0 2
b0 9
b0 j
b1100 5
b1100 D
b1100 F
b1100 R
b1100 h
b11 B
b11 G
b11 P
b11 *
b11 /
b11 ;
b11 L
b11 N
b0 +
b0 0
b0 <
b0 O
#304001
b1110 k
#305000
b1 +
b1 0
b1 <
b1 O
#306000
b10 +
b10 0
b10 <
b10 O
#307000
b11 +
b11 0
b11 <
b11 O
#308000
b100 +
b100 0
b100 <
b100 O
#309000
b101 +
b101 0
b101 <
b101 O
#310000
b110 +
b110 0
b110 <
b110 O
#311000
b111 +
b111 0
b111 <
b111 O
#312000
b1000 +
b1000 0
b1000 <
b1000 O
#313000
b1001 +
b1001 0
b1001 <
b1001 O
#314000
b1010 +
b1010 0
b1010 <
b1010 O
#315000
b1011 +
b1011 0
b1011 <
b1011 O
#316000
b1100 +
b1100 0
b1100 <
b1100 O
#317000
b1101 +
b1101 0
b1101 <
b1101 O
#318000
b1110 +
b1110 0
b1110 <
b1110 O
#319000
b1111 +
b1111 0
b1111 <
b1111 O
#320000
1`
b1101 $
b1101 4
b1101 8
1W
0\
b11 S
1]
b1101 3
b1101 :
b1101 T
1a
1V
1Z
0_
b1 2
b1 9
b1 j
b1011 5
b1011 D
b1011 F
b1011 R
b1011 h
b100 B
b100 G
b100 P
b100 *
b100 /
b100 ;
b100 L
b100 N
b0 +
b0 0
b0 <
b0 O
#320001
b1101 k
#321000
b1 +
b1 0
b1 <
b1 O
#322000
b10 +
b10 0
b10 <
b10 O
#323000
b11 +
b11 0
b11 <
b11 O
#324000
b100 +
b100 0
b100 <
b100 O
#325000
b101 +
b101 0
b101 <
b101 O
#326000
b110 +
b110 0
b110 <
b110 O
#327000
b111 +
b111 0
b111 <
b111 O
#328000
b1000 +
b1000 0
b1000 <
b1000 O
#329000
b1001 +
b1001 0
b1001 <
b1001 O
#330000
b1010 +
b1010 0
b1010 <
b1010 O
#331000
b1011 +
b1011 0
b1011 <
b1011 O
#332000
b1100 +
b1100 0
b1100 <
b1100 O
#333000
b1101 +
b1101 0
b1101 <
b1101 O
#334000
b1110 +
b1110 0
b1110 <
b1110 O
#335000
b1111 +
b1111 0
b1111 <
b1111 O
#336000
b1100 $
b1100 4
b1100 8
b1100 3
b1100 :
b1100 T
0W
0V
b0 2
b0 9
b0 j
b1010 5
b1010 D
b1010 F
b1010 R
b1010 h
b101 B
b101 G
b101 P
b101 *
b101 /
b101 ;
b101 L
b101 N
b0 +
b0 0
b0 <
b0 O
#336001
b1100 k
#337000
b1 +
b1 0
b1 <
b1 O
#338000
b10 +
b10 0
b10 <
b10 O
#339000
b11 +
b11 0
b11 <
b11 O
#340000
b100 +
b100 0
b100 <
b100 O
#341000
b101 +
b101 0
b101 <
b101 O
#342000
b110 +
b110 0
b110 <
b110 O
#343000
b111 +
b111 0
b111 <
b111 O
#344000
b1000 +
b1000 0
b1000 <
b1000 O
#345000
b1001 +
b1001 0
b1001 <
b1001 O
#346000
b1010 +
b1010 0
b1010 <
b1010 O
#347000
b1011 +
b1011 0
b1011 <
b1011 O
#348000
b1100 +
b1100 0
b1100 <
b1100 O
